{
  "apps" : [{
    "name"        : "Playerground",
    "script"      : "./main.js",
    "args"        : [],
    "cwd"         : "./",
    "instances"   : 0,
    "exec_mode"   : "cluster",
    "env": {
      "NODE_ENV"  : "production"
    }
  }]
}